…
```r
cache("gene_name_tib", {
    suppressPackageStartupMessages(library(org.Hs.eg.db))
    gene_name_tib <- full_join(
            as_tibble(as.data.frame(org.Hs.egENSEMBL)),
            as_tibble(as.data.frame(org.Hs.egSYMBOL)),
            by = "gene_id"
        ) %>%
        dplyr::select(-gene_id) %>%
        filter(!is.na(ensembl_id) & !is.na(symbol))
    return(gene_name_tib)
})
gene_name_tib
#> # A tibble: 30,903 x 2
#>    ensembl_id      symbol
#>    <chr>           <chr>
#>  1 ENSG00000121410 A1BG
#>  2 ENSG00000175899 A2M
#>  3 ENSG00000256069 A2MP1
#>  4 ENSG00000171428 NAT1
#>  5 ENSG00000156006 NAT2
#>  6 ENSG00000196136 SERPINA3
#>  7 ENSG00000114771 AADAC
#>  8 ENSG00000127837 AAMP
#>  9 ENSG00000129673 AANAT
#> 10 ENSG00000090861 AARS
#> # … with 30,893 more rows
```
…
